{
  "jira.cloud.scm.url" : "https://scmactivity.ilaesolution.com/scmactivity/custom/push?clientKey=fd4a2eba-***&securityToken=***",
  "jira.issue.patterns" : [
    "\\b(\\S+-\\d+)\\b",
    "(\\[\\S+-\\d+\\])",
    "(\\(\\S+-\\d+\\))",
    "(\\[JIRA\\s+\\S+-\\d+\\])"
  ],
  "git.cmd.path" : "git",
  "git.web" : "http://localhost/?p={0};a=commit;h={1}"
}
